# MagicaVoxel @ ephtracy

# material
mtllib Cracked.mtl
usemtl palette

# normals
vn -1 0 0
vn 1 0 0
vn 0 0 1
vn 0 0 -1
vn 0 -1 0
vn 0 1 0

# texcoords
vt 0.134766 0.5
vt 0.912109 0.5
vt 0.919922 0.5
vt 0.939453 0.5
vt 0.955078 0.5
vt 0.970703 0.5
vt 0.974609 0.5
vt 0.978516 0.5
vt 0.982422 0.5

# verts
v -8 0 8
v -8 0 -8
v -8 2 8
v -8 2 -8
v -8 14 8
v -8 14 -8
v -8 16 8
v -8 16 -8
v -7 2 7
v -7 2 -5
v -7 2 -7
v -7 3 7
v -7 3 6
v -7 3 2
v -7 3 -1
v -7 3 -5
v -7 3 -6
v -7 4 7
v -7 4 6
v -7 4 5
v -7 4 4
v -7 4 2
v -7 4 -1
v -7 4 -2
v -7 4 -4
v -7 4 -5
v -7 4 -6
v -7 4 -7
v -7 5 6
v -7 5 5
v -7 5 4
v -7 5 3
v -7 5 2
v -7 5 1
v -7 5 -0
v -7 5 -1
v -7 5 -2
v -7 6 3
v -7 6 2
v -7 6 -4
v -7 6 -5
v -7 6 -6
v -7 7 2
v -7 7 1
v -7 7 -0
v -7 7 -1
v -7 7 -2
v -7 7 -3
v -7 8 4
v -7 8 2
v -7 8 -5
v -7 8 -6
v -7 9 5
v -7 9 4
v -7 9 3
v -7 9 2
v -7 9 1
v -7 9 -0
v -7 9 -2
v -7 9 -3
v -7 9 -4
v -7 10 6
v -7 10 5
v -7 10 4
v -7 10 3
v -7 11 6
v -7 11 5
v -7 11 2
v -7 11 1
v -7 11 -1
v -7 11 -2
v -7 11 -5
v -7 11 -7
v -7 12 6
v -7 12 5
v -7 12 1
v -7 12 -1
v -7 12 -2
v -7 12 -3
v -7 12 -4
v -7 12 -5
v -7 12 -6
v -7 13 6
v -7 13 4
v -7 13 2
v -7 13 1
v -7 13 -0
v -7 13 -1
v -7 13 -3
v -7 13 -5
v -7 13 -6
v -7 13 -7
v -7 14 7
v -7 14 2
v -7 14 -0
v -7 14 -3
v -7 14 -5
v -7 14 -7
v 7 2 7
v 7 2 1
v 7 2 -1
v 7 2 -7
v 7 3 5
v 7 3 3
v 7 3 -0
v 7 3 -1
v 7 4 5
v 7 4 4
v 7 4 2
v 7 4 1
v 7 4 -0
v 7 4 -3
v 7 4 -5
v 7 4 -6
v 7 4 -7
v 7 5 7
v 7 5 6
v 7 5 4
v 7 5 3
v 7 5 2
v 7 5 1
v 7 5 -0
v 7 5 -1
v 7 5 -6
v 7 5 -7
v 7 6 7
v 7 6 6
v 7 6 5
v 7 6 4
v 7 6 3
v 7 6 2
v 7 7 6
v 7 7 5
v 7 7 -4
v 7 7 -5
v 7 7 -7
v 7 8 -3
v 7 8 -4
v 7 9 6
v 7 9 4
v 7 9 2
v 7 9 -0
v 7 9 -1
v 7 9 -2
v 7 9 -4
v 7 9 -5
v 7 9 -7
v 7 10 7
v 7 10 6
v 7 10 4
v 7 10 2
v 7 10 1
v 7 10 -2
v 7 10 -4
v 7 10 -5
v 7 11 7
v 7 11 6
v 7 11 5
v 7 11 3
v 7 11 2
v 7 11 1
v 7 11 -1
v 7 11 -4
v 7 11 -5
v 7 11 -7
v 7 12 6
v 7 12 5
v 7 12 4
v 7 12 3
v 7 12 1
v 7 12 -0
v 7 12 -5
v 7 12 -6
v 7 13 6
v 7 13 4
v 7 13 1
v 7 13 -0
v 7 13 -6
v 7 13 -7
v 7 14 7
v 7 14 1
v 7 14 -1
v 7 14 -7
v 8 0 8
v 8 0 -8
v 8 2 8
v 8 2 -8
v 8 14 8
v 8 14 -8
v 8 16 8
v 8 16 -8
v -8 0 8
v -8 2 8
v -8 14 8
v -8 16 8
v 8 0 8
v 8 2 8
v 8 14 8
v 8 16 8
v -7 2 7
v -7 3 7
v -7 4 7
v -7 14 7
v -6 4 7
v -6 5 7
v -6 8 7
v -6 9 7
v -6 10 7
v -6 12 7
v -5 3 7
v -5 4 7
v -5 8 7
v -5 9 7
v -5 10 7
v -5 11 7
v -5 12 7
v -5 13 7
v -4 5 7
v -4 8 7
v -4 9 7
v -4 10 7
v -4 11 7
v -4 13 7
v -3 4 7
v -3 8 7
v -3 9 7
v -3 10 7
v -3 11 7
v -2 5 7
v -2 7 7
v -2 10 7
v -2 11 7
v -2 13 7
v -2 14 7
v -1 3 7
v -1 4 7
v -1 5 7
v -1 6 7
v -1 7 7
v -1 8 7
v -1 9 7
v -1 10 7
v -1 11 7
v -1 13 7
v -1 14 7
v 0 4 7
v 0 5 7
v 0 6 7
v 0 7 7
v 0 10 7
v 0 11 7
v 0 13 7
v 1 3 7
v 1 4 7
v 1 5 7
v 1 6 7
v 1 7 7
v 1 8 7
v 1 9 7
v 1 11 7
v 1 12 7
v 1 13 7
v 2 4 7
v 2 5 7
v 2 6 7
v 2 7 7
v 2 10 7
v 2 12 7
v 2 13 7
v 3 3 7
v 3 5 7
v 3 7 7
v 3 10 7
v 3 12 7
v 4 3 7
v 4 4 7
v 4 7 7
v 4 9 7
v 4 12 7
v 4 14 7
v 5 4 7
v 5 5 7
v 5 6 7
v 5 7 7
v 5 8 7
v 5 9 7
v 5 10 7
v 5 12 7
v 5 14 7
v 6 5 7
v 6 6 7
v 6 8 7
v 6 11 7
v 6 12 7
v 7 2 7
v 7 5 7
v 7 6 7
v 7 10 7
v 7 11 7
v 7 14 7
v -7 2 -7
v -7 4 -7
v -7 11 -7
v -7 13 -7
v -7 14 -7
v -6 2 -7
v -6 3 -7
v -6 6 -7
v -6 7 -7
v -6 9 -7
v -6 10 -7
v -6 11 -7
v -6 12 -7
v -6 13 -7
v -6 14 -7
v -5 5 -7
v -5 6 -7
v -5 7 -7
v -5 8 -7
v -5 12 -7
v -5 14 -7
v -4 7 -7
v -4 8 -7
v -4 9 -7
v -3 3 -7
v -3 4 -7
v -3 5 -7
v -3 6 -7
v -3 8 -7
v -3 9 -7
v -3 12 -7
v -3 13 -7
v -2 10 -7
v -2 12 -7
v -1 4 -7
v -1 5 -7
v -1 7 -7
v -1 9 -7
v -1 10 -7
v -1 13 -7
v -1 14 -7
v 0 3 -7
v 0 4 -7
v 0 6 -7
v 0 7 -7
v 0 8 -7
v 0 9 -7
v 0 13 -7
v 0 14 -7
v 1 2 -7
v 1 3 -7
v 1 6 -7
v 1 8 -7
v 1 9 -7
v 1 10 -7
v 2 3 -7
v 2 4 -7
v 2 6 -7
v 2 7 -7
v 2 10 -7
v 2 13 -7
v 3 2 -7
v 3 3 -7
v 3 10 -7
v 3 12 -7
v 3 13 -7
v 3 14 -7
v 4 3 -7
v 4 4 -7
v 4 6 -7
v 4 7 -7
v 4 8 -7
v 4 12 -7
v 4 13 -7
v 5 4 -7
v 5 5 -7
v 5 7 -7
v 5 8 -7
v 5 9 -7
v 5 10 -7
v 5 13 -7
v 5 14 -7
v 6 3 -7
v 6 4 -7
v 6 7 -7
v 6 8 -7
v 6 9 -7
v 6 10 -7
v 6 11 -7
v 6 13 -7
v 7 2 -7
v 7 4 -7
v 7 5 -7
v 7 7 -7
v 7 9 -7
v 7 11 -7
v 7 13 -7
v 7 14 -7
v -8 0 -8
v -8 2 -8
v -8 14 -8
v -8 16 -8
v 8 0 -8
v 8 2 -8
v 8 14 -8
v 8 16 -8
v -8 0 8
v 8 0 8
v -8 0 -8
v 8 0 -8
v -8 14 8
v 8 14 8
v -7 14 7
v -2 14 7
v -1 14 7
v 4 14 7
v 5 14 7
v 7 14 7
v -7 14 2
v 7 14 1
v -7 14 -0
v 7 14 -1
v -7 14 -3
v -7 14 -5
v -7 14 -7
v -6 14 -7
v -5 14 -7
v -1 14 -7
v 0 14 -7
v 3 14 -7
v 5 14 -7
v 7 14 -7
v -8 14 -8
v 8 14 -8
v -8 2 8
v 8 2 8
v -7 2 7
v 7 2 7
v 7 2 1
v 7 2 -1
v -7 2 -5
v -7 2 -7
v -6 2 -7
v 1 2 -7
v 3 2 -7
v 7 2 -7
v -8 2 -8
v 8 2 -8
v -8 16 8
v 8 16 8
v -8 16 -8
v 8 16 -8

# faces
f 3/2/1 2/2/1 1/2/1
f 4/2/1 2/2/1 3/2/1
f 7/9/1 6/9/1 5/9/1
f 8/9/1 6/9/1 7/9/1
f 12/4/1 10/4/1 9/4/1
f 13/4/1 10/4/1 12/4/1
f 14/4/1 10/4/1 13/4/1
f 15/4/1 10/4/1 14/4/1
f 16/5/1 11/5/1 10/5/1
f 16/4/1 10/4/1 15/4/1
f 17/5/1 11/5/1 16/5/1
f 18/5/1 13/5/1 12/5/1
f 19/4/1 14/4/1 13/4/1
f 19/5/1 13/5/1 18/5/1
f 20/4/1 14/4/1 19/4/1
f 21/4/1 14/4/1 20/4/1
f 22/5/1 15/5/1 14/5/1
f 22/4/1 14/4/1 21/4/1
f 23/4/1 16/4/1 15/4/1
f 23/5/1 15/5/1 22/5/1
f 23/4/1 17/4/1 16/4/1
f 24/4/1 17/4/1 23/4/1
f 25/4/1 17/4/1 24/4/1
f 26/4/1 17/4/1 25/4/1
f 27/5/1 11/5/1 17/5/1
f 27/4/1 17/4/1 26/4/1
f 28/5/1 11/5/1 27/5/1
f 29/5/1 20/5/1 19/5/1
f 29/4/1 19/4/1 18/4/1
f 30/4/1 21/4/1 20/4/1
f 30/5/1 20/5/1 29/5/1
f 31/5/1 22/5/1 21/5/1
f 31/4/1 21/4/1 30/4/1
f 32/5/1 22/5/1 31/5/1
f 33/4/1 23/4/1 22/4/1
f 33/5/1 22/5/1 32/5/1
f 34/4/1 23/4/1 33/4/1
f 35/4/1 23/4/1 34/4/1
f 36/5/1 24/5/1 23/5/1
f 36/4/1 23/4/1 35/4/1
f 37/4/1 25/4/1 24/4/1
f 37/5/1 24/5/1 36/5/1
f 38/4/1 30/4/1 29/4/1
f 38/4/1 32/4/1 31/4/1
f 38/4/1 31/4/1 30/4/1
f 38/5/1 34/5/1 33/5/1
f 38/5/1 33/5/1 32/5/1
f 39/5/1 34/5/1 38/5/1
f 40/5/1 26/5/1 25/5/1
f 40/4/1 25/4/1 37/4/1
f 40/4/1 37/4/1 36/4/1
f 41/4/1 28/4/1 27/4/1
f 41/5/1 26/5/1 40/5/1
f 41/4/1 27/4/1 26/4/1
f 42/4/1 28/4/1 41/4/1
f 43/5/1 34/5/1 39/5/1
f 43/4/1 39/4/1 38/4/1
f 44/4/1 35/4/1 34/4/1
f 44/5/1 34/5/1 43/5/1
f 45/5/1 36/5/1 35/5/1
f 45/4/1 35/4/1 44/4/1
f 46/4/1 40/4/1 36/4/1
f 46/5/1 36/5/1 45/5/1
f 46/4/1 41/4/1 40/4/1
f 47/4/1 41/4/1 46/4/1
f 48/4/1 41/4/1 47/4/1
f 49/4/1 38/4/1 29/4/1
f 49/4/1 43/4/1 38/4/1
f 49/4/1 44/4/1 43/4/1
f 50/4/1 44/4/1 49/4/1
f 51/5/1 42/5/1 41/5/1
f 51/4/1 41/4/1 48/4/1
f 52/4/1 28/4/1 42/4/1
f 52/5/1 42/5/1 51/5/1
f 53/4/1 49/4/1 29/4/1
f 54/5/1 50/5/1 49/5/1
f 54/4/1 49/4/1 53/4/1
f 55/5/1 50/5/1 54/5/1
f 56/4/1 44/4/1 50/4/1
f 56/5/1 50/5/1 55/5/1
f 57/5/1 45/5/1 44/5/1
f 57/4/1 44/4/1 56/4/1
f 58/4/1 47/4/1 46/4/1
f 58/5/1 45/5/1 57/5/1
f 58/4/1 46/4/1 45/4/1
f 59/5/1 48/5/1 47/5/1
f 59/4/1 47/4/1 58/4/1
f 60/4/1 51/4/1 48/4/1
f 60/5/1 48/5/1 59/5/1
f 60/4/1 52/4/1 51/4/1
f 61/4/1 52/4/1 60/4/1
f 62/4/1 29/4/1 18/4/1
f 62/4/1 53/4/1 29/4/1
f 63/5/1 55/5/1 54/5/1
f 63/4/1 53/4/1 62/4/1
f 63/5/1 54/5/1 53/5/1
f 64/5/1 55/5/1 63/5/1
f 65/4/1 56/4/1 55/4/1
f 65/5/1 55/5/1 64/5/1
f 66/4/1 62/4/1 18/4/1
f 66/5/1 64/5/1 63/5/1
f 66/5/1 63/5/1 62/5/1
f 67/5/1 64/5/1 66/5/1
f 68/4/1 56/4/1 65/4/1
f 68/4/1 65/4/1 64/4/1
f 68/5/1 57/5/1 56/5/1
f 69/4/1 59/4/1 58/4/1
f 69/5/1 57/5/1 68/5/1
f 69/4/1 58/4/1 57/4/1
f 69/4/1 60/4/1 59/4/1
f 70/4/1 60/4/1 69/4/1
f 71/4/1 60/4/1 70/4/1
f 72/4/1 52/4/1 61/4/1
f 73/4/1 28/4/1 52/4/1
f 73/4/1 52/4/1 72/4/1
f 74/4/1 67/4/1 66/4/1
f 74/4/1 66/4/1 18/4/1
f 75/5/1 64/5/1 67/5/1
f 75/4/1 67/4/1 74/4/1
f 76/4/1 69/4/1 68/4/1
f 76/4/1 70/4/1 69/4/1
f 77/5/1 71/5/1 70/5/1
f 77/4/1 70/4/1 76/4/1
f 78/4/1 60/4/1 71/4/1
f 78/5/1 71/5/1 77/5/1
f 79/5/1 61/5/1 60/5/1
f 79/4/1 60/4/1 78/4/1
f 80/4/1 72/4/1 61/4/1
f 80/5/1 61/5/1 79/5/1
f 81/5/1 73/5/1 72/5/1
f 81/4/1 72/4/1 80/4/1
f 82/5/1 73/5/1 81/5/1
f 83/4/1 74/4/1 18/4/1
f 83/5/1 75/5/1 74/5/1
f 84/4/1 68/4/1 64/4/1
f 84/5/1 75/5/1 83/5/1
f 84/5/1 64/5/1 75/5/1
f 84/4/1 76/4/1 68/4/1
f 85/4/1 76/4/1 84/4/1
f 86/5/1 77/5/1 76/5/1
f 86/4/1 76/4/1 85/4/1
f 87/5/1 77/5/1 86/5/1
f 88/4/1 78/4/1 77/4/1
f 88/5/1 77/5/1 87/5/1
f 88/4/1 79/4/1 78/4/1
f 88/4/1 80/4/1 79/4/1
f 88/4/1 81/4/1 80/4/1
f 88/4/1 82/4/1 81/4/1
f 89/4/1 82/4/1 88/4/1
f 90/4/1 82/4/1 89/4/1
f 91/5/1 73/5/1 82/5/1
f 91/4/1 82/4/1 90/4/1
f 92/5/1 73/5/1 91/5/1
f 93/4/1 85/4/1 84/4/1
f 93/4/1 83/4/1 18/4/1
f 93/4/1 84/4/1 83/4/1
f 94/5/1 87/5/1 86/5/1
f 94/4/1 85/4/1 93/4/1
f 94/5/1 86/5/1 85/5/1
f 95/4/1 89/4/1 88/4/1
f 95/5/1 87/5/1 94/5/1
f 95/4/1 88/4/1 87/4/1
f 96/5/1 90/5/1 89/5/1
f 96/4/1 89/4/1 95/4/1
f 97/4/1 92/4/1 91/4/1
f 97/5/1 90/5/1 96/5/1
f 97/4/1 91/4/1 90/4/1
f 98/4/1 92/4/1 97/4/1
f 99/4/2 100/4/2 103/4/2
f 103/4/2 100/4/2 104/4/2
f 100/5/2 101/5/2 105/5/2
f 101/4/2 102/4/2 106/4/2
f 105/5/2 101/5/2 106/5/2
f 99/4/2 103/4/2 107/4/2
f 103/5/2 104/5/2 107/5/2
f 107/5/2 104/5/2 108/5/2
f 104/4/2 100/4/2 109/4/2
f 100/5/2 105/5/2 110/5/2
f 109/4/2 100/4/2 110/4/2
f 105/4/2 106/4/2 111/4/2
f 110/5/2 105/5/2 111/5/2
f 106/4/2 102/4/2 112/4/2
f 111/4/2 106/4/2 112/4/2
f 112/4/2 102/4/2 113/4/2
f 113/4/2 102/4/2 114/4/2
f 114/4/2 102/4/2 115/4/2
f 99/4/2 107/4/2 116/4/2
f 107/4/2 108/4/2 116/4/2
f 116/4/2 108/4/2 117/4/2
f 108/5/2 104/5/2 118/5/2
f 117/4/2 108/4/2 118/4/2
f 104/4/2 109/4/2 119/4/2
f 118/5/2 104/5/2 119/5/2
f 109/5/2 110/5/2 120/5/2
f 119/4/2 109/4/2 120/4/2
f 110/4/2 111/4/2 121/4/2
f 120/5/2 110/5/2 121/5/2
f 111/4/2 112/4/2 121/4/2
f 121/4/2 112/4/2 122/4/2
f 122/4/2 112/4/2 123/4/2
f 114/5/2 115/5/2 124/5/2
f 113/4/2 114/4/2 124/4/2
f 124/5/2 115/5/2 125/5/2
f 116/5/2 117/5/2 126/5/2
f 117/4/2 118/4/2 127/4/2
f 126/5/2 117/5/2 127/5/2
f 118/4/2 119/4/2 127/4/2
f 127/4/2 119/4/2 128/4/2
f 128/4/2 119/4/2 129/4/2
f 119/5/2 120/5/2 130/5/2
f 129/4/2 119/4/2 130/4/2
f 120/4/2 121/4/2 131/4/2
f 130/5/2 120/5/2 131/5/2
f 121/4/2 122/4/2 131/4/2
f 127/4/2 128/4/2 132/4/2
f 126/4/2 127/4/2 132/4/2
f 128/5/2 129/5/2 133/5/2
f 132/4/2 128/4/2 133/4/2
f 112/5/2 113/5/2 134/5/2
f 124/4/2 125/4/2 135/4/2
f 134/5/2 113/5/2 135/5/2
f 113/4/2 124/4/2 135/4/2
f 135/4/2 125/4/2 136/4/2
f 112/5/2 134/5/2 137/5/2
f 123/4/2 112/4/2 137/4/2
f 134/4/2 135/4/2 138/4/2
f 137/5/2 134/5/2 138/5/2
f 126/4/2 132/4/2 139/4/2
f 132/5/2 133/5/2 139/5/2
f 133/5/2 129/5/2 140/5/2
f 139/5/2 133/5/2 140/5/2
f 129/4/2 130/4/2 140/4/2
f 130/4/2 131/4/2 140/4/2
f 131/4/2 122/4/2 141/4/2
f 140/4/2 131/4/2 141/4/2
f 122/5/2 123/5/2 142/5/2
f 141/4/2 122/4/2 142/4/2
f 123/4/2 137/4/2 143/4/2
f 142/5/2 123/5/2 143/5/2
f 137/4/2 138/4/2 143/4/2
f 143/4/2 138/4/2 144/4/2
f 138/4/2 135/4/2 145/4/2
f 144/4/2 138/4/2 145/4/2
f 135/5/2 136/5/2 146/5/2
f 145/4/2 135/4/2 146/4/2
f 146/5/2 136/5/2 147/5/2
f 126/4/2 139/4/2 148/4/2
f 139/4/2 140/4/2 148/4/2
f 148/4/2 140/4/2 149/4/2
f 140/5/2 141/5/2 150/5/2
f 149/4/2 140/4/2 150/4/2
f 143/4/2 144/4/2 151/4/2
f 150/5/2 141/5/2 151/5/2
f 141/4/2 142/4/2 151/4/2
f 142/4/2 143/4/2 151/4/2
f 151/4/2 144/4/2 152/4/2
f 144/5/2 145/5/2 153/5/2
f 152/4/2 144/4/2 153/4/2
f 146/4/2 147/4/2 154/4/2
f 153/5/2 145/5/2 154/5/2
f 145/4/2 146/4/2 154/4/2
f 154/4/2 147/4/2 155/4/2
f 148/5/2 149/5/2 156/5/2
f 149/4/2 150/4/2 157/4/2
f 156/5/2 149/5/2 157/5/2
f 150/4/2 151/4/2 157/4/2
f 157/4/2 151/4/2 158/4/2
f 158/4/2 151/4/2 159/4/2
f 151/5/2 152/5/2 160/5/2
f 159/4/2 151/4/2 160/4/2
f 152/4/2 153/4/2 161/4/2
f 160/5/2 152/5/2 161/5/2
f 153/4/2 154/4/2 161/4/2
f 161/4/2 154/4/2 162/4/2
f 154/5/2 155/5/2 163/5/2
f 162/4/2 154/4/2 163/4/2
f 155/4/2 147/4/2 164/4/2
f 163/5/2 155/5/2 164/5/2
f 164/4/2 147/4/2 165/4/2
f 157/4/2 158/4/2 166/4/2
f 156/4/2 157/4/2 166/4/2
f 158/5/2 159/5/2 167/5/2
f 166/4/2 158/4/2 167/4/2
f 167/5/2 159/5/2 168/5/2
f 159/4/2 160/4/2 169/4/2
f 168/5/2 159/5/2 169/5/2
f 160/4/2 161/4/2 169/4/2
f 161/5/2 162/5/2 170/5/2
f 169/4/2 161/4/2 170/4/2
f 170/5/2 162/5/2 171/5/2
f 162/4/2 163/4/2 172/4/2
f 164/5/2 165/5/2 172/5/2
f 163/4/2 164/4/2 172/4/2
f 172/5/2 165/5/2 173/5/2
f 156/4/2 166/4/2 174/4/2
f 167/5/2 168/5/2 174/5/2
f 166/5/2 167/5/2 174/5/2
f 168/4/2 169/4/2 175/4/2
f 174/5/2 168/5/2 175/5/2
f 170/4/2 171/4/2 175/4/2
f 169/4/2 170/4/2 175/4/2
f 175/4/2 171/4/2 176/4/2
f 171/5/2 162/5/2 177/5/2
f 176/4/2 171/4/2 177/4/2
f 173/5/2 165/5/2 178/5/2
f 172/4/2 173/4/2 178/4/2
f 178/5/2 165/5/2 179/5/2
f 175/4/2 176/4/2 180/4/2
f 156/4/2 174/4/2 180/4/2
f 174/4/2 175/4/2 180/4/2
f 176/5/2 177/5/2 181/5/2
f 180/4/2 176/4/2 181/4/2
f 177/5/2 162/5/2 182/5/2
f 181/5/2 177/5/2 182/5/2
f 178/4/2 179/4/2 182/4/2
f 172/4/2 178/4/2 182/4/2
f 162/4/2 172/4/2 182/4/2
f 182/4/2 179/4/2 183/4/2
f 184/2/2 185/2/2 186/2/2
f 186/2/2 185/2/2 187/2/2
f 188/9/2 189/9/2 190/9/2
f 190/9/2 189/9/2 191/9/2
f 196/2/3 193/2/3 192/2/3
f 197/2/3 193/2/3 196/2/3
f 198/9/3 195/9/3 194/9/3
f 199/9/3 195/9/3 198/9/3
f 204/5/3 202/5/3 201/5/3
f 204/4/3 203/4/3 202/4/3
f 205/4/3 203/4/3 204/4/3
f 206/4/3 203/4/3 205/4/3
f 207/4/3 203/4/3 206/4/3
f 208/4/3 203/4/3 207/4/3
f 209/4/3 203/4/3 208/4/3
f 210/4/3 201/4/3 200/4/3
f 210/5/3 204/5/3 201/5/3
f 210/5/3 205/5/3 204/5/3
f 211/5/3 205/5/3 210/5/3
f 212/4/3 206/4/3 205/4/3
f 212/5/3 207/5/3 206/5/3
f 213/4/3 208/4/3 207/4/3
f 213/5/3 207/5/3 212/5/3
f 214/5/3 209/5/3 208/5/3
f 214/4/3 208/4/3 213/4/3
f 215/5/3 209/5/3 214/5/3
f 216/4/3 203/4/3 209/4/3
f 216/5/3 209/5/3 215/5/3
f 217/4/3 203/4/3 216/4/3
f 218/4/3 213/4/3 212/4/3
f 218/4/3 212/4/3 205/4/3
f 218/5/3 205/5/3 211/5/3
f 219/4/3 213/4/3 218/4/3
f 220/5/3 214/5/3 213/5/3
f 220/4/3 213/4/3 219/4/3
f 221/4/3 215/4/3 214/4/3
f 221/5/3 214/5/3 220/5/3
f 222/5/3 217/5/3 216/5/3
f 222/4/3 215/4/3 221/4/3
f 222/5/3 216/5/3 215/5/3
f 223/4/3 203/4/3 217/4/3
f 223/5/3 217/5/3 222/5/3
f 224/5/3 218/5/3 211/5/3
f 224/4/3 211/4/3 210/4/3
f 224/5/3 219/5/3 218/5/3
f 225/4/3 220/4/3 219/4/3
f 225/5/3 219/5/3 224/5/3
f 225/4/3 221/4/3 220/4/3
f 226/4/3 221/4/3 225/4/3
f 227/5/3 222/5/3 221/5/3
f 227/4/3 221/4/3 226/4/3
f 228/4/3 223/4/3 222/4/3
f 228/5/3 222/5/3 227/5/3
f 229/4/3 225/4/3 224/4/3
f 230/4/3 225/4/3 229/4/3
f 231/4/3 227/4/3 226/4/3
f 231/4/3 228/4/3 227/4/3
f 232/4/3 223/4/3 228/4/3
f 232/4/3 228/4/3 231/4/3
f 233/4/3 203/4/3 223/4/3
f 233/4/3 223/4/3 232/4/3
f 234/4/3 203/4/3 233/4/3
f 235/4/3 224/4/3 210/4/3
f 235/4/3 210/4/3 200/4/3
f 235/4/3 229/4/3 224/4/3
f 236/4/3 229/4/3 235/4/3
f 237/5/3 230/5/3 229/5/3
f 237/4/3 229/4/3 236/4/3
f 238/5/3 230/5/3 237/5/3
f 239/4/3 225/4/3 230/4/3
f 239/5/3 230/5/3 238/5/3
f 240/5/3 226/5/3 225/5/3
f 240/4/3 225/4/3 239/4/3
f 241/4/3 231/4/3 226/4/3
f 241/5/3 226/5/3 240/5/3
f 242/5/3 232/5/3 231/5/3
f 242/4/3 231/4/3 241/4/3
f 243/4/3 233/4/3 232/4/3
f 243/5/3 232/5/3 242/5/3
f 244/5/3 234/5/3 233/5/3
f 244/4/3 233/4/3 243/4/3
f 245/5/3 234/5/3 244/5/3
f 246/4/3 238/4/3 237/4/3
f 246/5/3 236/5/3 235/5/3
f 246/4/3 237/4/3 236/4/3
f 247/4/3 238/4/3 246/4/3
f 248/5/3 239/5/3 238/5/3
f 248/4/3 238/4/3 247/4/3
f 248/5/3 240/5/3 239/5/3
f 249/5/3 240/5/3 248/5/3
f 250/4/3 243/4/3 242/4/3
f 250/5/3 242/5/3 241/5/3
f 251/5/3 244/5/3 243/5/3
f 251/4/3 243/4/3 250/4/3
f 252/4/3 245/4/3 244/4/3
f 252/5/3 244/5/3 251/5/3
f 253/5/3 247/5/3 246/5/3
f 253/5/3 246/5/3 235/5/3
f 253/4/3 235/4/3 200/4/3
f 254/5/3 247/5/3 253/5/3
f 255/4/3 249/4/3 248/4/3
f 255/5/3 247/5/3 254/5/3
f 255/4/3 248/4/3 247/4/3
f 256/4/3 249/4/3 255/4/3
f 257/5/3 240/5/3 249/5/3
f 257/4/3 249/4/3 256/4/3
f 258/4/3 241/4/3 240/4/3
f 258/5/3 240/5/3 257/5/3
f 259/5/3 251/5/3 250/5/3
f 259/4/3 241/4/3 258/4/3
f 259/5/3 250/5/3 241/5/3
f 260/4/3 252/4/3 251/4/3
f 260/5/3 251/5/3 259/5/3
f 261/4/3 252/4/3 260/4/3
f 262/4/3 245/4/3 252/4/3
f 262/4/3 252/4/3 261/4/3
f 263/5/3 256/5/3 255/5/3
f 263/4/3 254/4/3 253/4/3
f 263/5/3 255/5/3 254/5/3
f 264/5/3 256/5/3 263/5/3
f 265/4/3 261/4/3 260/4/3
f 265/5/3 256/5/3 264/5/3
f 265/4/3 257/4/3 256/4/3
f 265/4/3 259/4/3 258/4/3
f 265/4/3 260/4/3 259/4/3
f 265/4/3 258/4/3 257/4/3
f 266/4/3 261/4/3 265/4/3
f 267/4/3 261/4/3 266/4/3
f 268/5/3 262/5/3 261/5/3
f 268/4/3 261/4/3 267/4/3
f 269/4/3 245/4/3 262/4/3
f 269/5/3 262/5/3 268/5/3
f 270/4/3 264/4/3 263/4/3
f 270/4/3 263/4/3 253/4/3
f 270/4/3 253/4/3 200/4/3
f 271/5/3 266/5/3 265/5/3
f 271/4/3 264/4/3 270/4/3
f 271/5/3 265/5/3 264/5/3
f 272/4/3 267/4/3 266/4/3
f 272/5/3 266/5/3 271/5/3
f 273/5/3 268/5/3 267/5/3
f 273/4/3 267/4/3 272/4/3
f 274/4/3 269/4/3 268/4/3
f 274/5/3 268/5/3 273/5/3
f 275/4/3 270/4/3 200/4/3
f 275/5/3 271/5/3 270/5/3
f 276/5/3 271/5/3 275/5/3
f 277/4/3 272/4/3 271/4/3
f 277/4/3 273/4/3 272/4/3
f 277/4/3 274/4/3 273/4/3
f 278/4/3 274/4/3 277/4/3
f 279/4/3 269/4/3 274/4/3
f 279/4/3 274/4/3 278/4/3
f 280/4/3 245/4/3 269/4/3
f 280/4/3 269/4/3 279/4/3
f 281/5/3 271/5/3 276/5/3
f 281/4/3 276/4/3 275/4/3
f 282/4/3 277/4/3 271/4/3
f 282/5/3 271/5/3 281/5/3
f 283/4/3 277/4/3 282/4/3
f 284/5/3 278/5/3 277/5/3
f 284/4/3 277/4/3 283/4/3
f 285/5/3 278/5/3 284/5/3
f 286/4/3 279/4/3 278/4/3
f 286/5/3 278/5/3 285/5/3
f 287/4/3 279/4/3 286/4/3
f 288/5/3 280/5/3 279/5/3
f 288/4/3 279/4/3 287/4/3
f 289/5/3 280/5/3 288/5/3
f 290/4/3 283/4/3 282/4/3
f 290/4/3 282/4/3 281/4/3
f 291/5/3 285/5/3 284/5/3
f 291/4/3 283/4/3 290/4/3
f 291/5/3 284/5/3 283/5/3
f 292/4/3 287/4/3 286/4/3
f 292/5/3 285/5/3 291/5/3
f 292/4/3 286/4/3 285/4/3
f 293/5/3 288/5/3 287/5/3
f 294/4/3 289/4/3 288/4/3
f 294/5/3 288/5/3 293/5/3
f 295/4/3 290/4/3 281/4/3
f 295/4/3 275/4/3 200/4/3
f 295/4/3 281/4/3 275/4/3
f 296/5/3 291/5/3 290/5/3
f 296/4/3 290/4/3 295/4/3
f 297/4/3 292/4/3 291/4/3
f 297/5/3 291/5/3 296/5/3
f 298/5/3 293/5/3 287/5/3
f 298/4/3 292/4/3 297/4/3
f 298/4/3 287/4/3 292/4/3
f 299/4/3 294/4/3 293/4/3
f 299/5/3 293/5/3 298/5/3
f 300/4/3 289/4/3 294/4/3
f 300/4/3 294/4/3 299/4/3
f 301/5/4 302/5/4 306/5/4
f 306/5/4 302/5/4 307/5/4
f 302/4/4 303/4/4 308/4/4
f 308/4/4 303/4/4 309/4/4
f 309/4/4 303/4/4 310/4/4
f 310/4/4 303/4/4 311/4/4
f 303/5/4 304/5/4 312/5/4
f 311/4/4 303/4/4 312/4/4
f 312/5/4 304/5/4 313/5/4
f 304/4/4 305/4/4 314/4/4
f 313/5/4 304/5/4 314/5/4
f 314/4/4 305/4/4 315/4/4
f 302/4/4 308/4/4 316/4/4
f 308/5/4 309/5/4 317/5/4
f 316/4/4 308/4/4 317/4/4
f 309/4/4 310/4/4 318/4/4
f 317/5/4 309/5/4 318/5/4
f 318/4/4 310/4/4 319/4/4
f 312/4/4 313/4/4 320/4/4
f 311/4/4 312/4/4 320/4/4
f 313/5/4 314/5/4 320/5/4
f 314/5/4 315/5/4 320/5/4
f 320/5/4 315/5/4 321/5/4
f 318/5/4 319/5/4 322/5/4
f 317/4/4 318/4/4 322/4/4
f 319/4/4 310/4/4 323/4/4
f 322/5/4 319/5/4 323/5/4
f 310/5/4 311/5/4 324/5/4
f 323/4/4 310/4/4 324/4/4
f 307/5/4 302/5/4 325/5/4
f 306/4/4 307/4/4 325/4/4
f 302/4/4 316/4/4 326/4/4
f 325/5/4 302/5/4 326/5/4
f 316/5/4 317/5/4 327/5/4
f 326/4/4 316/4/4 327/4/4
f 317/4/4 322/4/4 328/4/4
f 327/5/4 317/5/4 328/5/4
f 322/4/4 323/4/4 328/4/4
f 323/5/4 324/5/4 329/5/4
f 328/4/4 323/4/4 329/4/4
f 324/5/4 311/5/4 330/5/4
f 329/5/4 324/5/4 330/5/4
f 311/4/4 320/4/4 331/4/4
f 320/4/4 321/4/4 331/4/4
f 331/4/4 321/4/4 332/4/4
f 330/5/4 311/5/4 333/5/4
f 311/4/4 331/4/4 333/4/4
f 331/5/4 332/5/4 334/5/4
f 333/4/4 331/4/4 334/4/4
f 326/5/4 327/5/4 335/5/4
f 325/4/4 326/4/4 335/4/4
f 328/4/4 329/4/4 336/4/4
f 335/5/4 327/5/4 336/5/4
f 327/4/4 328/4/4 336/4/4
f 329/4/4 330/4/4 336/4/4
f 336/4/4 330/4/4 337/4/4
f 330/5/4 333/5/4 338/5/4
f 337/4/4 330/4/4 338/4/4
f 333/5/4 334/5/4 338/5/4
f 338/5/4 334/5/4 339/5/4
f 334/5/4 332/5/4 340/5/4
f 339/5/4 334/5/4 340/5/4
f 332/4/4 321/4/4 340/4/4
f 340/4/4 321/4/4 341/4/4
f 325/4/4 335/4/4 342/4/4
f 336/4/4 337/4/4 342/4/4
f 306/4/4 325/4/4 342/4/4
f 335/4/4 336/4/4 342/4/4
f 342/4/4 337/4/4 343/4/4
f 343/4/4 337/4/4 344/4/4
f 338/5/4 339/5/4 345/5/4
f 344/4/4 337/4/4 345/4/4
f 337/5/4 338/5/4 345/5/4
f 345/5/4 339/5/4 346/5/4
f 346/5/4 339/5/4 347/5/4
f 340/5/4 341/5/4 348/5/4
f 339/4/4 340/4/4 348/4/4
f 348/5/4 341/5/4 349/5/4
f 306/4/4 342/4/4 350/4/4
f 342/5/4 343/5/4 351/5/4
f 350/4/4 342/4/4 351/4/4
f 343/4/4 344/4/4 352/4/4
f 344/5/4 345/5/4 352/5/4
f 345/5/4 346/5/4 352/5/4
f 346/4/4 347/4/4 353/4/4
f 352/5/4 346/5/4 353/5/4
f 347/5/4 339/5/4 354/5/4
f 353/4/4 347/4/4 354/4/4
f 348/4/4 349/4/4 355/4/4
f 354/5/4 339/5/4 355/5/4
f 339/4/4 348/4/4 355/4/4
f 351/5/4 343/5/4 356/5/4
f 350/5/4 351/5/4 356/5/4
f 352/4/4 353/4/4 357/4/4
f 356/5/4 343/5/4 357/5/4
f 343/4/4 352/4/4 357/4/4
f 357/4/4 353/4/4 358/4/4
f 358/4/4 353/4/4 359/4/4
f 355/4/4 349/4/4 360/4/4
f 354/4/4 355/4/4 360/4/4
f 360/4/4 349/4/4 361/4/4
f 350/5/4 356/5/4 362/5/4
f 356/4/4 357/4/4 363/4/4
f 362/5/4 356/5/4 363/5/4
f 357/4/4 358/4/4 363/4/4
f 360/5/4 361/5/4 364/5/4
f 354/4/4 360/4/4 364/4/4
f 364/5/4 361/5/4 365/5/4
f 361/4/4 349/4/4 366/4/4
f 365/5/4 361/5/4 366/5/4
f 366/4/4 349/4/4 367/4/4
f 363/4/4 358/4/4 368/4/4
f 362/4/4 363/4/4 368/4/4
f 368/4/4 358/4/4 369/4/4
f 358/5/4 359/5/4 370/5/4
f 369/4/4 358/4/4 370/4/4
f 359/4/4 353/4/4 371/4/4
f 370/5/4 359/5/4 371/5/4
f 353/5/4 354/5/4 372/5/4
f 371/4/4 353/4/4 372/4/4
f 364/4/4 365/4/4 373/4/4
f 366/5/4 367/5/4 373/5/4
f 365/5/4 366/5/4 373/5/4
f 373/5/4 367/5/4 374/5/4
f 369/4/4 370/4/4 375/4/4
f 370/4/4 371/4/4 375/4/4
f 368/5/4 369/5/4 375/5/4
f 375/4/4 371/4/4 376/4/4
f 371/5/4 372/5/4 377/5/4
f 376/4/4 371/4/4 377/4/4
f 372/5/4 354/5/4 378/5/4
f 377/5/4 372/5/4 378/5/4
f 373/4/4 374/4/4 379/4/4
f 378/5/4 354/5/4 379/5/4
f 364/4/4 373/4/4 379/4/4
f 354/4/4 364/4/4 379/4/4
f 379/4/4 374/4/4 380/4/4
f 374/5/4 367/5/4 381/5/4
f 380/4/4 374/4/4 381/4/4
f 381/5/4 367/5/4 382/5/4
f 368/5/4 375/5/4 383/5/4
f 375/5/4 376/5/4 383/5/4
f 362/4/4 368/4/4 383/4/4
f 383/5/4 376/5/4 384/5/4
f 376/4/4 377/4/4 385/4/4
f 377/4/4 378/4/4 385/4/4
f 379/5/4 380/5/4 386/5/4
f 385/4/4 378/4/4 386/4/4
f 378/5/4 379/5/4 386/5/4
f 386/5/4 380/5/4 387/5/4
f 381/4/4 382/4/4 388/4/4
f 387/5/4 380/5/4 388/5/4
f 380/4/4 381/4/4 388/4/4
f 388/4/4 382/4/4 389/4/4
f 389/4/4 382/4/4 390/4/4
f 383/4/4 384/4/4 391/4/4
f 362/4/4 383/4/4 391/4/4
f 384/5/4 376/5/4 392/5/4
f 391/4/4 384/4/4 392/4/4
f 376/4/4 385/4/4 393/4/4
f 392/5/4 376/5/4 393/5/4
f 386/5/4 387/5/4 394/5/4
f 393/4/4 385/4/4 394/4/4
f 385/5/4 386/5/4 394/5/4
f 388/4/4 389/4/4 395/4/4
f 394/5/4 387/5/4 395/5/4
f 387/4/4 388/4/4 395/4/4
f 389/5/4 390/5/4 396/5/4
f 395/4/4 389/4/4 396/4/4
f 390/4/4 382/4/4 397/4/4
f 396/5/4 390/5/4 397/5/4
f 397/4/4 382/4/4 398/4/4
f 399/2/4 400/2/4 403/2/4
f 403/2/4 400/2/4 404/2/4
f 401/9/4 402/9/4 405/9/4
f 405/9/4 402/9/4 406/9/4
f 409/2/5 408/2/5 407/2/5
f 410/2/5 408/2/5 409/2/5
f 413/9/5 412/9/5 411/9/5
f 414/9/5 412/9/5 413/9/5
f 415/9/5 412/9/5 414/9/5
f 416/9/5 412/9/5 415/9/5
f 417/9/5 412/9/5 416/9/5
f 418/9/5 412/9/5 417/9/5
f 419/9/5 413/9/5 411/9/5
f 420/9/5 412/9/5 418/9/5
f 421/9/5 419/9/5 411/9/5
f 422/9/5 412/9/5 420/9/5
f 423/9/5 421/9/5 411/9/5
f 424/9/5 423/9/5 411/9/5
f 425/9/5 424/9/5 411/9/5
f 432/9/5 412/9/5 422/9/5
f 433/9/5 431/9/5 430/9/5
f 433/9/5 432/9/5 431/9/5
f 433/9/5 425/9/5 411/9/5
f 433/9/5 426/9/5 425/9/5
f 433/9/5 430/9/5 429/9/5
f 433/9/5 429/9/5 428/9/5
f 433/9/5 428/9/5 427/9/5
f 433/9/5 427/9/5 426/9/5
f 434/9/5 412/9/5 432/9/5
f 434/9/5 432/9/5 433/9/5
f 435/2/6 436/2/6 437/2/6
f 437/2/6 436/2/6 438/2/6
f 438/2/6 436/2/6 439/2/6
f 439/2/6 436/2/6 440/2/6
f 435/2/6 437/2/6 441/2/6
f 435/2/6 441/2/6 442/2/6
f 440/2/6 436/2/6 446/2/6
f 444/2/6 445/2/6 447/2/6
f 445/2/6 446/2/6 447/2/6
f 435/2/6 442/2/6 447/2/6
f 442/2/6 443/2/6 447/2/6
f 443/2/6 444/2/6 447/2/6
f 446/2/6 436/2/6 448/2/6
f 447/2/6 446/2/6 448/2/6
f 449/9/6 450/9/6 451/9/6
f 451/9/6 450/9/6 452/9/6
